<?xml version="1.0" encoding="UTF-8" standalone="no"?>
<!-- Created with Inkscape (http://www.inkscape.org/) -->

<svg
   xmlns:dc="http://purl.org/dc/elements/1.1/"
   xmlns:cc="http://creativecommons.org/ns#"
   xmlns:rdf="http://www.w3.org/1999/02/22-rdf-syntax-ns#"
   xmlns:svg="http://www.w3.org/2000/svg"
   xmlns="http://www.w3.org/2000/svg"
   xmlns:sodipodi="http://sodipodi.sourceforge.net/DTD/sodipodi-0.dtd"
   xmlns:inkscape="http://www.inkscape.org/namespaces/inkscape"
   width="210mm"
   height="297mm"
   viewBox="0 0 210 297"
   version="1.1"
   id="svg3807"
   inkscape:version="0.92.2 2405546, 2018-03-11"
   sodipodi:docname="centralizedCoordination.svg">
  <defs
     id="defs3801" />
  <sodipodi:namedview
     id="base"
     pagecolor="#ffffff"
     bordercolor="#666666"
     borderopacity="1.0"
     inkscape:pageopacity="0.0"
     inkscape:pageshadow="2"
     inkscape:zoom="0.24748737"
     inkscape:cx="794.609"
     inkscape:cy="806.01845"
     inkscape:document-units="mm"
     inkscape:current-layer="layer1"
     showgrid="false"
     inkscape:window-width="1600"
     inkscape:window-height="850"
     inkscape:window-x="1920"
     inkscape:window-y="0"
     inkscape:window-maximized="1" />
  <metadata
     id="metadata3804">
    <rdf:RDF>
      <cc:Work
         rdf:about="">
        <dc:format>image/svg+xml</dc:format>
        <dc:type
           rdf:resource="http://purl.org/dc/dcmitype/StillImage" />
        <dc:title></dc:title>
      </cc:Work>
    </rdf:RDF>
  </metadata>
  <g
     inkscape:label="Calque 1"
     inkscape:groupmode="layer"
     id="layer1">
    <g
       id="g5359">
      <path
         id="path3782"
         d="m 52.609582,81.900333 a 0.84560824,0.84560824 0 0 0 -0.687009,0.84554 v 6.764171 a 0.84560824,0.84560824 0 0 0 0.845513,0.84554 h 5.918687 v 1.08331 c -0.504696,0.292718 -0.845542,0.82791 -0.845542,1.453269 h -5.654434 c -1.168985,0 -2.189361,0.60785 -2.800794,1.506093 -0.450591,-0.406748 -1.042653,-0.66058 -1.691057,-0.66058 -1.390889,0 -2.536571,1.145685 -2.536571,2.536566 0,0.795666 0.369963,1.515101 0.951225,1.981712 l -2.43089,7.424766 c -1.082248,0.2892 -1.902419,1.26311 -1.902419,2.43088 a 0.84560824,0.84560824 0 1 0 1.691058,0 c 0,-0.47775 0.367758,-0.84554 0.845513,-0.84554 0.477754,0 0.845513,0.36779 0.845513,0.84554 a 0.84560824,0.84560824 0 1 0 1.691058,0 c 0,-0.99341 -0.586024,-1.8572 -1.426808,-2.27235 l 2.298749,-7.028442 c 0.461712,-0.0066 0.895333,-0.145715 1.268301,-0.369893 l 1.030479,10.833275 c 0.163936,1.7288 1.619153,3.06501 3.355657,3.06501 h 1.928843 v 5.91869 c 0,1.39085 1.145716,2.53656 2.536577,2.53656 h 4.227632 c 1.390852,0 2.536569,-1.14571 2.536569,-2.53656 v -5.91869 h 1.796736 c 1.797191,0 3.296824,-1.42914 3.382091,-3.22355 L 70.2863,98.5466 c 0.323302,0.155945 0.677739,0.26013 1.056906,0.264275 l 2.298777,7.028435 c -0.840811,0.41515 -1.426839,1.27895 -1.426839,2.27235 a 0.84560824,0.84560824 0 1 0 1.691065,0 c 0,-0.47774 0.367753,-0.84554 0.845513,-0.84554 0.477749,0 0.845541,0.3678 0.845541,0.84554 a 0.84560824,0.84560824 0 1 0 1.691026,0 c 0,-1.16776 -0.820168,-2.14174 -1.902419,-2.43088 l -2.430895,-7.424759 c 0.581299,-0.466612 0.951234,-1.186046 0.951234,-1.981712 0,-1.390881 -1.145689,-2.536566 -2.536578,-2.536566 -0.608521,0 -1.172559,0.218253 -1.611769,0.581292 C 69.14247,93.464315 68.140519,92.89223 67.009891,92.89223 H 61.22335 c 0,-0.625373 -0.340856,-1.160671 -0.84555,-1.45327 v -1.083309 h 5.918686 a 0.84560824,0.84560824 0 0 0 0.845513,-0.84554 V 82.74594 A 0.84560824,0.84560824 0 0 0 66.296486,81.9004 h -13.5284 a 0.84560824,0.84560824 0 0 0 -0.07923,0 0.84560824,0.84560824 0 0 0 -0.07923,0 z m 1.004056,1.691053 h 11.837307 v 5.073145 H 53.613638 Z m 3.38208,1.691066 c -0.466953,0 -0.845513,0.378556 -0.845513,0.845513 0,0.466984 0.37856,0.845514 0.845513,0.845514 0.466982,0 0.845513,-0.37853 0.845513,-0.845514 0,-0.466957 -0.378531,-0.845513 -0.845513,-0.845513 z m 5.073145,0 c -0.466953,0 -0.845513,0.378556 -0.845513,0.845513 0,0.466984 0.37856,0.845514 0.845513,0.845514 0.466983,0 0.845513,-0.37853 0.845513,-0.845514 0,-0.466957 -0.37853,-0.845513 -0.845513,-0.845513 z m -9.882066,9.300738 h 14.823094 c 0.977176,0 1.737271,0.794098 1.691055,1.77034 l -0.607723,12.68287 c -0.04312,0.90959 -0.779167,1.61178 -1.691055,1.61178 H 53.375811 c -0.879512,0 -1.58161,-0.65714 -1.664602,-1.53253 L 50.49577,96.432791 C 50.3999,95.427029 51.176382,94.58319 52.186797,94.58319 Z m -4.491851,0.845539 c 0.476987,0 0.845544,0.368526 0.845544,0.845513 0,0.476988 -0.368557,0.845513 -0.845544,0.845513 -0.101301,0 -0.201648,-0.02232 -0.290488,-0.05274 a 0.84560824,0.84560824 0 0 0 -0.05273,0 c -0.304868,-0.125946 -0.502043,-0.434939 -0.502043,-0.79269 0,-0.476974 0.368559,-0.845513 0.845514,-0.845513 z m 23.674685,0 c 0.47699,0 0.845513,0.368526 0.845513,0.845513 0,0.336122 -0.174162,0.628854 -0.449181,0.766252 a 0.84560824,0.84560824 0 0 0 -0.158505,0.05274 c -0.07412,0.01913 -0.155633,0.02564 -0.237761,0.02564 -0.47699,0 -0.845513,-0.368539 -0.845513,-0.84554 0,-0.476988 0.368523,-0.845513 0.845513,-0.845513 z M 56.995718,112.3392 h 5.918658 v 0.84554 H 61.22335 v 1.69103 h 1.691026 v 1.69105 H 61.22335 v 1.69107 h 1.691026 c 0,0.47774 -0.367764,0.84551 -0.845513,0.84551 h -4.227632 c -0.47772,0 -0.845513,-0.36777 -0.845513,-0.84551 h 1.691055 v -1.69107 h -1.691055 v -1.69105 h 1.691055 v -1.69103 h -1.691055 z"
         style="line-height:normal;-inkscape-font-specification:Sans;text-indent:0;text-align:start;text-transform:none;fill:#93a1a3;fill-opacity:1;stroke:none;stroke-width:0.8455236;stroke-opacity:1"
         inkscape:connector-curvature="0" />
      <path
         id="path3782-2"
         d="m 72.256428,111.87218 a 0.84560825,0.84560825 0 0 0 -0.687009,0.84556 v 6.76415 a 0.84560825,0.84560825 0 0 0 0.845513,0.84556 h 5.918687 v 1.08329 c -0.504696,0.29273 -0.845542,0.82792 -0.845542,1.45328 h -5.654434 c -1.168985,0 -2.189361,0.60785 -2.800794,1.50609 -0.450591,-0.40675 -1.042653,-0.66058 -1.691057,-0.66058 -1.390889,0 -2.536571,1.14568 -2.536571,2.53658 0,0.79565 0.369963,1.5151 0.951225,1.9817 l -2.43089,7.42476 c -1.082248,0.2892 -1.902419,1.26312 -1.902419,2.43088 a 0.84560825,0.84560825 0 1 0 1.691058,0 c 0,-0.47774 0.367758,-0.84554 0.845513,-0.84554 0.477754,0 0.845513,0.3678 0.845513,0.84554 a 0.84560825,0.84560825 0 1 0 1.691058,0 c 0,-0.99341 -0.586024,-1.8572 -1.426808,-2.27234 l 2.298749,-7.02844 c 0.461712,-0.007 0.895333,-0.14572 1.268301,-0.3699 L 69.667,139.24605 c 0.163936,1.72879 1.619153,3.06501 3.355657,3.06501 h 1.928844 v 5.91868 c 0,1.39087 1.145715,2.53658 2.536576,2.53658 h 4.227632 c 1.390852,0 2.536569,-1.14571 2.536569,-2.53658 v -5.91868 h 1.796736 c 1.797191,0 3.296824,-1.42915 3.382091,-3.22356 l 0.502041,-10.56905 c 0.323302,0.15595 0.677739,0.26013 1.056906,0.26429 l 2.298778,7.02842 c -0.840812,0.41516 -1.42684,1.27895 -1.42684,2.27236 a 0.84560825,0.84560825 0 1 0 1.691065,0 c 0,-0.47775 0.367753,-0.84554 0.845513,-0.84554 0.477749,0 0.845541,0.36779 0.845541,0.84554 a 0.84560825,0.84560825 0 1 0 1.691026,0 c 0,-1.16777 -0.820168,-2.14175 -1.902419,-2.43088 l -2.430895,-7.42477 c 0.581299,-0.4666 0.951234,-1.18604 0.951234,-1.9817 0,-1.39089 -1.145689,-2.53657 -2.536578,-2.53657 -0.608521,0 -1.172559,0.21826 -1.611769,0.58129 -0.615392,-0.85472 -1.617343,-1.42681 -2.747971,-1.42681 h -5.786541 c 0,-0.62536 -0.340856,-1.16067 -0.84555,-1.45327 v -1.0833 h 5.918686 a 0.84560825,0.84560825 0 0 0 0.845513,-0.84555 v -6.76417 a 0.84560825,0.84560825 0 0 0 -0.845513,-0.84554 h -13.5284 a 0.84560825,0.84560825 0 0 0 -0.07923,0 0.84560825,0.84560825 0 0 0 -0.07923,0 z m 1.004056,1.69107 h 11.837307 v 5.07313 H 73.260484 Z m 3.38208,1.69105 c -0.466953,0 -0.845513,0.37856 -0.845513,0.84551 0,0.46699 0.37856,0.84552 0.845513,0.84552 0.466982,0 0.845513,-0.37853 0.845513,-0.84552 0,-0.46695 -0.378531,-0.84551 -0.845513,-0.84551 z m 5.073145,0 c -0.466953,0 -0.845513,0.37856 -0.845513,0.84551 0,0.46699 0.37856,0.84552 0.845513,0.84552 0.466983,0 0.845513,-0.37853 0.845513,-0.84552 0,-0.46695 -0.37853,-0.84551 -0.845513,-0.84551 z m -9.882066,9.30074 h 14.823094 c 0.977176,0 1.737271,0.7941 1.691055,1.77034 l -0.607723,12.68287 c -0.04313,0.90959 -0.779167,1.61178 -1.691055,1.61178 H 73.022657 c -0.879512,0 -1.58161,-0.65714 -1.664602,-1.53253 l -1.215439,-12.68286 c -0.09587,-1.00575 0.680612,-1.8496 1.691027,-1.8496 z m -4.491851,0.84555 c 0.476987,0 0.845544,0.36852 0.845544,0.84552 0,0.47699 -0.368557,0.84551 -0.845544,0.84551 -0.101301,0 -0.201648,-0.0223 -0.290488,-0.0527 a 0.84560825,0.84560825 0 0 0 -0.05273,0 c -0.304868,-0.12595 -0.502043,-0.43494 -0.502043,-0.79269 0,-0.47699 0.368559,-0.84552 0.845514,-0.84552 z m 23.674685,0 c 0.47699,0 0.845513,0.36852 0.845513,0.84552 0,0.33612 -0.174162,0.62884 -0.449181,0.76625 a 0.84560825,0.84560825 0 0 0 -0.158505,0.0527 c -0.07412,0.0191 -0.155633,0.0256 -0.237761,0.0256 -0.47699,0 -0.845513,-0.36855 -0.845513,-0.84554 0,-0.47698 0.368523,-0.84551 0.845513,-0.84551 z m -14.373913,16.91047 h 5.918658 v 0.84554 h -1.691026 v 1.69102 h 1.691026 v 1.69105 h -1.691026 v 1.69107 h 1.691026 c 0,0.47776 -0.367764,0.84553 -0.845513,0.84553 h -4.227632 c -0.47772,0 -0.845513,-0.36777 -0.845513,-0.84553 h 1.691055 v -1.69107 h -1.691055 v -1.69105 h 1.691055 v -1.69102 h -1.691055 z"
         style="line-height:normal;-inkscape-font-specification:Sans;text-indent:0;text-align:start;text-transform:none;fill:#93a1a3;fill-opacity:1;stroke:none;stroke-width:0.8455236;stroke-opacity:1"
         inkscape:connector-curvature="0" />
      <path
         id="path3782-3"
         d="m 157.53441,78.264481 a 0.84560825,0.84560825 0 0 0 -0.687,0.84554 v 6.764158 a 0.84560825,0.84560825 0 0 0 0.84551,0.845553 h 5.91868 v 1.083296 c -0.50468,0.292732 -0.84554,0.82791 -0.84554,1.453269 h -5.65443 c -1.16899,0 -2.18937,0.60785 -2.80079,1.506093 -0.45059,-0.406747 -1.04266,-0.660579 -1.69107,-0.660579 -1.39088,0 -2.53656,1.145684 -2.53656,2.536579 0,0.795653 0.36996,1.5151 0.95122,1.981699 l -2.43089,7.424761 c -1.08225,0.2892 -1.90241,1.26312 -1.90241,2.43088 a 0.84560825,0.84560825 0 1 0 1.69105,0 c 0,-0.47774 0.36776,-0.84554 0.84552,-0.84554 0.47775,0 0.84551,0.3678 0.84551,0.84554 a 0.84560825,0.84560825 0 1 0 1.69105,0 c 0,-0.9934 -0.58602,-1.8572 -1.4268,-2.27234 l 2.29875,-7.028434 c 0.46171,-0.0066 0.89534,-0.145728 1.2683,-0.369907 l 1.03047,10.833281 c 0.16394,1.7288 1.61915,3.06501 3.35567,3.06501 h 1.92884 v 5.91867 c 0,1.39087 1.14571,2.53657 2.53657,2.53657 h 4.22764 c 1.39085,0 2.53656,-1.1457 2.53656,-2.53657 v -5.91867 h 1.79674 c 1.79719,0 3.29683,-1.42915 3.38209,-3.22356 l 0.50205,-10.569045 c 0.3233,0.155944 0.67773,0.260129 1.0569,0.264287 l 2.29878,7.028418 c -0.84081,0.41516 -1.42685,1.27895 -1.42685,2.27236 a 0.84560825,0.84560825 0 1 0 1.69107,0 c 0,-0.47775 0.36775,-0.84554 0.84551,-0.84554 0.47775,0 0.84554,0.36779 0.84554,0.84554 a 0.84560825,0.84560825 0 1 0 1.69103,0 c 0,-1.16777 -0.82017,-2.14175 -1.90241,-2.43088 l -2.4309,-7.424765 c 0.5813,-0.466599 0.95123,-1.186046 0.95123,-1.981699 0,-1.390894 -1.14569,-2.536579 -2.53658,-2.536579 -0.60851,0 -1.17256,0.218267 -1.61177,0.581292 -0.61539,-0.85472 -1.61734,-1.426805 -2.74797,-1.426805 h -5.78654 c 0,-0.62536 -0.34085,-1.160671 -0.84555,-1.45327 v -1.083296 h 5.91868 a 0.84560825,0.84560825 0 0 0 0.84552,-0.845553 v -6.764171 a 0.84560825,0.84560825 0 0 0 -0.84552,-0.845527 h -13.52839 a 0.84560825,0.84560825 0 0 0 -0.0792,0 0.84560825,0.84560825 0 0 0 -0.0792,0 z m 1.00406,1.691053 h 11.83731 v 5.073132 h -11.83731 z m 3.38208,1.691052 c -0.46696,0 -0.84551,0.378556 -0.84551,0.845514 0,0.466983 0.37855,0.845513 0.84551,0.845513 0.46699,0 0.84551,-0.37853 0.84551,-0.845513 0,-0.466958 -0.37852,-0.845514 -0.84551,-0.845514 z m 5.07315,0 c -0.46696,0 -0.84552,0.378556 -0.84552,0.845514 0,0.466983 0.37856,0.845513 0.84552,0.845513 0.46698,0 0.84551,-0.37853 0.84551,-0.845513 0,-0.466958 -0.37853,-0.845514 -0.84551,-0.845514 z m -9.88207,9.300738 h 14.82309 c 0.97718,0 1.73727,0.794098 1.69106,1.77034 l -0.60773,12.682866 c -0.0432,0.90959 -0.77916,1.61178 -1.69105,1.61178 h -13.02635 c -0.87952,0 -1.58162,-0.65714 -1.6646,-1.53253 L 155.4206,92.796925 c -0.0959,-1.005749 0.68062,-1.849601 1.69103,-1.849601 z m -4.49186,0.845553 c 0.47699,0 0.84556,0.368512 0.84556,0.845513 0,0.476988 -0.36857,0.845513 -0.84556,0.845513 -0.10136,0 -0.20164,-0.02232 -0.29048,-0.05274 a 0.84560825,0.84560825 0 0 0 -0.0527,0 c -0.30486,-0.125946 -0.50204,-0.43494 -0.50204,-0.79269 0,-0.476988 0.36857,-0.845514 0.84551,-0.845514 z m 23.67469,0 c 0.47699,0 0.84551,0.368512 0.84551,0.845513 0,0.336122 -0.17416,0.62884 -0.44918,0.766252 a 0.84560825,0.84560825 0 0 0 -0.15849,0.05274 c -0.0741,0.01913 -0.15564,0.02564 -0.23777,0.02564 -0.47699,0 -0.84552,-0.368552 -0.84552,-0.84554 0,-0.476987 0.36853,-0.845513 0.84552,-0.845513 z m -14.37391,16.910463 h 5.91866 v 0.84554 h -1.69103 v 1.69102 h 1.69103 v 1.69106 h -1.69103 v 1.69105 h 1.69103 c 0,0.47776 -0.36777,0.84553 -0.84551,0.84553 h -4.22764 c -0.47771,0 -0.84551,-0.36777 -0.84551,-0.84553 h 1.69105 v -1.69105 h -1.69105 v -1.69106 h 1.69105 v -1.69102 h -1.69105 z"
         style="line-height:normal;-inkscape-font-specification:Sans;text-indent:0;text-align:start;text-transform:none;fill:#93a1a3;fill-opacity:1;stroke:none;stroke-width:0.8455236;stroke-opacity:1"
         inkscape:connector-curvature="0" />
      <path
         id="path3782-5"
         d="m 103.56171,134.19731 a 0.84560825,0.84560825 0 0 0 -0.68701,0.84554 v 6.76417 a 0.84560825,0.84560825 0 0 0 0.84551,0.84554 h 5.91869 v 1.08331 c -0.5047,0.29272 -0.84554,0.8279 -0.84554,1.45327 h -5.65444 c -1.16898,0 -2.18936,0.60785 -2.80079,1.50609 -0.450592,-0.40675 -1.042654,-0.66058 -1.691057,-0.66058 -1.39089,0 -2.536572,1.14567 -2.536572,2.53657 0,0.79565 0.369963,1.5151 0.951226,1.9817 l -2.430891,7.42477 c -1.082248,0.2892 -1.902419,1.26312 -1.902419,2.43088 a 0.84560825,0.84560825 0 1 0 1.691058,0 c 0,-0.47774 0.367759,-0.84554 0.845513,-0.84554 0.477755,0 0.845513,0.3678 0.845513,0.84554 a 0.84560825,0.84560825 0 1 0 1.691058,0 c 0,-0.9934 -0.586024,-1.8572 -1.426807,-2.27234 l 2.298748,-7.02845 c 0.461712,-0.007 0.895334,-0.14571 1.268302,-0.36989 l 1.030478,10.83328 c 0.16394,1.7288 1.61915,3.06501 3.35566,3.06501 h 1.92884 v 5.91868 c 0,1.39086 1.14572,2.53657 2.53658,2.53657 h 4.22763 c 1.39085,0 2.53657,-1.14571 2.53657,-2.53657 v -5.91868 h 1.79673 c 1.7972,0 3.29683,-1.42914 3.3821,-3.22356 l 0.50204,-10.56904 c 0.3233,0.15594 0.67773,0.26012 1.0569,0.26427 l 2.29878,7.02843 c -0.84081,0.41516 -1.42684,1.27895 -1.42684,2.27236 a 0.84560825,0.84560825 0 1 0 1.69107,0 c 0,-0.47775 0.36776,-0.84554 0.84552,-0.84554 0.47775,0 0.84554,0.36779 0.84554,0.84554 a 0.84560825,0.84560825 0 1 0 1.69103,0 c 0,-1.16777 -0.82017,-2.14175 -1.90241,-2.43088 l -2.43091,-7.42478 c 0.58129,-0.4666 0.95123,-1.18604 0.95123,-1.9817 0,-1.39089 -1.14569,-2.53658 -2.53658,-2.53658 -0.60852,0 -1.17255,0.21827 -1.61177,0.58131 -0.61539,-0.85472 -1.61734,-1.42682 -2.74797,-1.42682 h -5.78654 c 0,-0.62536 -0.34086,-1.16067 -0.84555,-1.45326 v -1.0833 h 5.91868 a 0.84560825,0.84560825 0 0 0 0.84552,-0.84554 v -6.76418 a 0.84560825,0.84560825 0 0 0 -0.84552,-0.84555 h -13.5284 a 0.84560825,0.84560825 0 0 0 -0.0792,0 0.84560825,0.84560825 0 0 0 -0.0792,0 z m 1.00405,1.69105 h 11.83731 v 5.07315 h -11.83731 z m 3.38208,1.69105 c -0.46695,0 -0.84551,0.37857 -0.84551,0.84552 0,0.46699 0.37856,0.84551 0.84551,0.84551 0.46699,0 0.84552,-0.37852 0.84552,-0.84551 0,-0.46695 -0.37853,-0.84552 -0.84552,-0.84552 z m 5.07315,0 c -0.46695,0 -0.84551,0.37857 -0.84551,0.84552 0,0.46699 0.37856,0.84551 0.84551,0.84551 0.46698,0 0.84551,-0.37852 0.84551,-0.84551 0,-0.46695 -0.37853,-0.84552 -0.84551,-0.84552 z m -9.88207,9.30075 h 14.8231 c 0.97717,0 1.73727,0.7941 1.69105,1.77034 l -0.60772,12.68287 c -0.0431,0.90959 -0.77917,1.61178 -1.69106,1.61178 h -13.02635 c -0.87951,0 -1.58161,-0.65714 -1.6646,-1.53253 l -1.21544,-12.68285 c -0.0959,-1.00577 0.68061,-1.84961 1.69102,-1.84961 z m -4.491847,0.84554 c 0.476986,0 0.845543,0.36853 0.845543,0.84552 0,0.47698 -0.368557,0.84551 -0.845543,0.84551 -0.101302,0 -0.201648,-0.0223 -0.290488,-0.0527 a 0.84560825,0.84560825 0 0 0 -0.05273,0 c -0.304868,-0.12595 -0.502043,-0.43494 -0.502043,-0.79269 0,-0.47699 0.368558,-0.84552 0.845513,-0.84552 z m 23.674687,0 c 0.477,0 0.84551,0.36853 0.84551,0.84552 0,0.33612 -0.17416,0.62885 -0.44918,0.76625 a 0.84560825,0.84560825 0 0 0 -0.1585,0.0527 c -0.0741,0.0191 -0.15564,0.0256 -0.23777,0.0256 -0.47699,0 -0.84551,-0.36855 -0.84551,-0.84554 0,-0.47698 0.36852,-0.84551 0.84551,-0.84551 z m -14.37392,16.91048 h 5.91866 v 0.84554 h -1.69102 v 1.69102 h 1.69102 v 1.69106 h -1.69102 v 1.69106 h 1.69102 c 0,0.47775 -0.36776,0.84552 -0.84551,0.84552 h -4.22763 c -0.47772,0 -0.84552,-0.36777 -0.84552,-0.84552 h 1.69106 v -1.69106 h -1.69106 v -1.69106 h 1.69106 v -1.69102 h -1.69106 z"
         style="line-height:normal;-inkscape-font-specification:Sans;text-indent:0;text-align:start;text-transform:none;fill:#93a1a3;fill-opacity:1;stroke:none;stroke-width:0.8455236;stroke-opacity:1"
         inkscape:connector-curvature="0" />
      <path
         id="path3782-0"
         d="m 135.91427,113.11788 a 0.84560825,0.84560825 0 0 0 -0.68701,0.84556 v 6.76415 a 0.84560825,0.84560825 0 0 0 0.84552,0.84556 h 5.91868 v 1.08329 c -0.5047,0.29274 -0.84554,0.82791 -0.84554,1.45327 h -5.65444 c -1.16898,0 -2.18936,0.60785 -2.80078,1.5061 -0.45061,-0.40675 -1.04266,-0.66058 -1.69107,-0.66058 -1.39088,0 -2.53656,1.14568 -2.53656,2.53658 0,0.79565 0.36996,1.5151 0.95122,1.98169 l -2.43089,7.42478 c -1.08225,0.2892 -1.90243,1.26312 -1.90243,2.43088 a 0.84560825,0.84560825 0 1 0 1.69107,0 c 0,-0.47774 0.36775,-0.84554 0.84551,-0.84554 0.47776,0 0.84552,0.3678 0.84552,0.84554 a 0.84560825,0.84560825 0 1 0 1.69105,0 c 0,-0.99341 -0.58602,-1.8572 -1.42681,-2.27234 l 2.29875,-7.02845 c 0.46172,-0.007 0.89533,-0.14571 1.26831,-0.36989 l 1.03047,10.83328 c 0.16394,1.7288 1.61915,3.06501 3.35565,3.06501 h 1.92885 v 5.91868 c 0,1.39086 1.14571,2.53657 2.53658,2.53657 h 4.22763 c 1.39086,0 2.53657,-1.14571 2.53657,-2.53657 v -5.91868 h 1.79674 c 1.79719,0 3.29682,-1.42915 3.38209,-3.22356 l 0.50204,-10.56906 c 0.32331,0.15594 0.67774,0.26013 1.0569,0.26429 l 2.29879,7.02843 c -0.84082,0.41516 -1.42685,1.27895 -1.42685,2.27236 a 0.84560825,0.84560825 0 1 0 1.69107,0 c 0,-0.47775 0.36775,-0.84554 0.84551,-0.84554 0.47774,0 0.84554,0.36779 0.84554,0.84554 a 0.84560825,0.84560825 0 1 0 1.69103,0 c 0,-1.16777 -0.82017,-2.14175 -1.90242,-2.43088 l -2.4309,-7.42478 c 0.5813,-0.4666 0.95124,-1.18605 0.95124,-1.9817 0,-1.39089 -1.14569,-2.53658 -2.53658,-2.53658 -0.60852,0 -1.17256,0.21827 -1.61177,0.58129 -0.61539,-0.85472 -1.61734,-1.4268 -2.74798,-1.4268 h -5.78653 c 0,-0.62536 -0.34085,-1.16067 -0.84555,-1.45327 v -1.0833 h 5.91868 a 0.84560825,0.84560825 0 0 0 0.84552,-0.84555 v -6.76417 a 0.84560825,0.84560825 0 0 0 -0.84552,-0.84554 h -13.52839 a 0.84560825,0.84560825 0 0 0 -0.0792,0 0.84560825,0.84560825 0 0 0 -0.0792,0 z m 1.00406,1.69107 h 11.8373 v 5.07313 h -11.8373 z m 3.38208,1.69105 c -0.46696,0 -0.84552,0.37856 -0.84552,0.84552 0,0.46698 0.37856,0.84551 0.84552,0.84551 0.46698,0 0.84551,-0.37853 0.84551,-0.84551 0,-0.46696 -0.37853,-0.84552 -0.84551,-0.84552 z m 5.07314,0 c -0.46695,0 -0.84551,0.37856 -0.84551,0.84552 0,0.46698 0.37856,0.84551 0.84551,0.84551 0.46699,0 0.84552,-0.37853 0.84552,-0.84551 0,-0.46696 -0.37853,-0.84552 -0.84552,-0.84552 z m -9.88207,9.30075 h 14.82309 c 0.97719,0 1.73728,0.79409 1.69107,1.77033 l -0.60773,12.68288 c -0.0432,0.90959 -0.77917,1.61178 -1.69105,1.61178 h -13.02637 c -0.87951,0 -1.5816,-0.65714 -1.6646,-1.53253 l -1.21543,-12.68287 c -0.0959,-1.00575 0.68061,-1.84959 1.69102,-1.84959 z m -4.49185,0.84554 c 0.47699,0 0.84555,0.36851 0.84555,0.84552 0,0.47698 -0.36856,0.84551 -0.84555,0.84551 -0.10137,0 -0.20165,-0.0223 -0.29049,-0.0527 a 0.84560825,0.84560825 0 0 0 -0.0527,0 c -0.30486,-0.12595 -0.50204,-0.43494 -0.50204,-0.79269 0,-0.47699 0.36856,-0.84552 0.84551,-0.84552 z m 23.67469,0 c 0.47698,0 0.84551,0.36851 0.84551,0.84552 0,0.33612 -0.17416,0.62884 -0.44918,0.76625 a 0.84560825,0.84560825 0 0 0 -0.15851,0.0527 c -0.0741,0.0191 -0.15563,0.0256 -0.23776,0.0256 -0.47698,0 -0.84551,-0.36855 -0.84551,-0.84554 0,-0.47699 0.36853,-0.84551 0.84551,-0.84551 z m -14.37391,16.91048 h 5.91866 v 0.84554 h -1.69103 v 1.69102 h 1.69103 v 1.69106 h -1.69103 v 1.69106 h 1.69103 c 0,0.47775 -0.36777,0.84552 -0.84552,0.84552 h -4.22763 c -0.47772,0 -0.84551,-0.36777 -0.84551,-0.84552 h 1.69105 v -1.69106 h -1.69105 v -1.69106 h 1.69105 v -1.69102 h -1.69105 z"
         style="line-height:normal;-inkscape-font-specification:Sans;text-indent:0;text-align:start;text-transform:none;fill:#93a1a3;fill-opacity:1;stroke:none;stroke-width:0.8455236;stroke-opacity:1"
         inkscape:connector-curvature="0" />
      <path
         inkscape:connector-curvature="0"
         d="m 123.00911,59.417489 c -3.86724,0 -6.99609,3.128864 -6.99609,6.996104 0,3.86724 3.12885,6.996104 6.99609,6.996104 3.86726,0 6.99612,-3.128864 6.99612,-6.996104 0,-3.86724 -3.12886,-6.996104 -6.99612,-6.996104 z m -1.64288,11.869379 1.77209,-4.162589 -3.50727,1.033726 5.51013,-6.691524 -1.67059,3.774942 3.49806,-1.015266 z m 2.32588,-30.81793 H 92.948023 l 6.063909,-7.99291 h 18.542438 z m 1.91056,16.31809 V 53.74123 H 90.963639 v 8.685138 h 22.917321 c 1.96593,-4.504089 6.93149,-6.931496 11.72171,-5.63934 z m -32.331604,3.184242 1.513669,-3.802631 h 1.836702 l -1.522893,3.802631 z m 2.981183,0 1.513668,-3.802631 h 1.836712 l -1.522903,3.802631 z m 2.971958,0 1.522903,-3.802631 h 1.83671 l -1.5229,3.802631 z m 2.990423,0 1.5229,-3.802631 h 1.83671 l -1.5229,3.802631 z m 2.98119,0 1.5229,-3.802631 h 1.83671 l -1.5229,3.802631 z M 125.60267,42.7579 H 90.963639 v 8.694368 H 125.6119 V 42.7579 Z m -32.331604,6.248501 1.522893,-3.802633 h 1.836711 l -1.522902,3.802633 z m 2.981183,0 1.522902,-3.802633 h 1.83671 l -1.522901,3.802633 z m 2.971958,0 1.522903,-3.802633 h 1.83671 l -1.5229,3.802633 z m 2.990423,0 1.5229,-3.802633 h 1.83671 l -1.5229,3.802633 z m 4.8179,0 h -1.83671 l 1.5229,-3.802633 h 1.83671 z m 14.45368,-0.62762 c -0.70146,0 -1.27369,-0.563011 -1.27369,-1.273697 0,-0.710686 0.57223,-1.273697 1.27369,-1.273697 0.70146,0 1.2737,0.563011 1.2737,1.273697 0,0.710686 -0.56301,1.273697 -1.2737,1.273697 z m -8.28825,16.299631 H 90.963639 v 8.685137 h 24.910931 c -2.27973,-2.335111 -3.23039,-5.565503 -2.67661,-8.685137 z m -19.926894,6.248499 1.522893,-3.802632 h 1.836711 l -1.522902,3.802632 z m 2.981183,0 1.522902,-3.802632 h 1.83671 l -1.522901,3.802632 z m 2.971958,0 1.522903,-3.802632 h 1.83671 l -1.5229,3.802632 z m 2.990423,0 1.5229,-3.802632 h 1.83671 l -1.5229,3.802632 z m 4.8179,0 h -1.83671 l 1.5229,-3.802632 h 1.83671 z"
         class="st0"
         id="server-5-icon"
         style="fill:#7b8c8e;fill-opacity:1;stroke-width:0.09229689" />
      <path
         inkscape:connection-start="#path3782-3"
         inkscape:connector-curvature="0"
         inkscape:connector-type="polyline"
         id="path4407"
         d="M 150.45692,91.320756 111.11558,73.363549"
         style="fill:none;fill-rule:evenodd;stroke:#000000;stroke-width:0.35151106px;stroke-linecap:butt;stroke-linejoin:miter;stroke-opacity:1" />
      <path
         inkscape:connection-end="#path3782-5"
         inkscape:connector-curvature="0"
         inkscape:connector-type="polyline"
         id="path4411"
         d="m 111.11558,73.363549 -0.47826,60.833811"
         style="fill:none;fill-rule:evenodd;stroke:#000000;stroke-width:0.35151106px;stroke-linecap:butt;stroke-linejoin:miter;stroke-opacity:1" />
      <path
         sodipodi:nodetypes="cc"
         inkscape:connection-start="#path3782"
         inkscape:connector-curvature="0"
         inkscape:connector-type="polyline"
         id="path5340"
         d="M 72.770914,94.165145 111.11558,73.363549"
         style="fill:none;fill-rule:evenodd;stroke:#000000;stroke-width:0.35151106px;stroke-linecap:butt;stroke-linejoin:miter;stroke-opacity:1" />
      <path
         inkscape:connection-start="#path3782-0"
         inkscape:connector-curvature="0"
         inkscape:connector-type="polyline"
         id="path5344"
         d="M 135.22726,118.36266 111.11558,73.363549"
         style="fill:none;fill-rule:evenodd;stroke:#000000;stroke-width:0.35151106px;stroke-linecap:butt;stroke-linejoin:miter;stroke-opacity:1" />
      <path
         inkscape:connection-start="#path3782-2"
         inkscape:connector-curvature="0"
         inkscape:connector-type="polyline"
         id="path5346"
         d="M 86.788845,117.50944 111.11558,73.363549"
         style="fill:none;fill-rule:evenodd;stroke:#000000;stroke-width:0.35151106px;stroke-linecap:butt;stroke-linejoin:miter;stroke-opacity:1" />
    </g>
  </g>
</svg>
